[gd_scene load_steps=8 format=2]

[ext_resource path="res://equipment/shield/Shield.escn" type="PackedScene" id=1]
[ext_resource path="res://equipment/shield/Shield.gd" type="Script" id=2]
[ext_resource path="res://assets/sounds/shield_down.wav" type="AudioStream" id=3]
[ext_resource path="res://assets/sounds/shield_up.wav" type="AudioStream" id=4]

[sub_resource type="Animation" id=1]
resource_name = "Off"
length = 0.3
tracks/0/type = "value"
tracks/0/path = NodePath("Shield:blend_shapes/Open")
tracks/0/interp = 1
tracks/0/loop_wrap = true
tracks/0/imported = false
tracks/0/enabled = true
tracks/0/keys = {
"times": PoolRealArray( 0, 0.1 ),
"transitions": PoolRealArray( 1, 1 ),
"update": 0,
"values": [ 0.0, 1.0 ]
}
tracks/1/type = "value"
tracks/1/path = NodePath(".:visible")
tracks/1/interp = 1
tracks/1/loop_wrap = true
tracks/1/imported = false
tracks/1/enabled = true
tracks/1/keys = {
"times": PoolRealArray( 0, 0.1 ),
"transitions": PoolRealArray( 1, 1 ),
"update": 1,
"values": [ true, false ]
}
tracks/2/type = "value"
tracks/2/path = NodePath("CollisionShape:disabled")
tracks/2/interp = 1
tracks/2/loop_wrap = true
tracks/2/imported = false
tracks/2/enabled = true
tracks/2/keys = {
"times": PoolRealArray( 0.1 ),
"transitions": PoolRealArray( 1 ),
"update": 1,
"values": [ true ]
}
tracks/3/type = "audio"
tracks/3/path = NodePath("Sound")
tracks/3/interp = 1
tracks/3/loop_wrap = true
tracks/3/imported = false
tracks/3/enabled = true
tracks/3/keys = {
"clips": [ {
"end_offset": 0.0,
"start_offset": 0.0,
"stream": ExtResource( 3 )
} ],
"times": PoolRealArray( 0 )
}

[sub_resource type="Animation" id=2]
resource_name = "On"
length = 0.3
tracks/0/type = "value"
tracks/0/path = NodePath("Shield:blend_shapes/Open")
tracks/0/interp = 1
tracks/0/loop_wrap = true
tracks/0/imported = false
tracks/0/enabled = true
tracks/0/keys = {
"times": PoolRealArray( 0, 0.1 ),
"transitions": PoolRealArray( 1, 1 ),
"update": 0,
"values": [ 1.0, 0.0 ]
}
tracks/1/type = "value"
tracks/1/path = NodePath(".:visible")
tracks/1/interp = 1
tracks/1/loop_wrap = true
tracks/1/imported = false
tracks/1/enabled = true
tracks/1/keys = {
"times": PoolRealArray( 0 ),
"transitions": PoolRealArray( 1 ),
"update": 1,
"values": [ true ]
}
tracks/2/type = "value"
tracks/2/path = NodePath("CollisionShape:disabled")
tracks/2/interp = 1
tracks/2/loop_wrap = true
tracks/2/imported = false
tracks/2/enabled = true
tracks/2/keys = {
"times": PoolRealArray( 0.1 ),
"transitions": PoolRealArray( 1 ),
"update": 1,
"values": [ false ]
}
tracks/3/type = "audio"
tracks/3/path = NodePath("Sound")
tracks/3/interp = 1
tracks/3/loop_wrap = true
tracks/3/imported = false
tracks/3/enabled = true
tracks/3/keys = {
"clips": [ {
"end_offset": 0.0,
"start_offset": 0.0,
"stream": ExtResource( 4 )
} ],
"times": PoolRealArray( 0 )
}

[sub_resource type="BoxShape" id=3]
extents = Vector3( 0.541834, 0.84831, 0.0240427 )

[node name="Shield" instance=ExtResource( 1 )]
visible = false
script = ExtResource( 2 )

[node name="Shield" parent="." index="0"]
blend_shapes/Open = 1.0

[node name="AnimationPlayer" type="AnimationPlayer" parent="." index="1"]
anims/Off = SubResource( 1 )
anims/On = SubResource( 2 )

[node name="CollisionShape" type="CollisionShape" parent="." index="2"]
transform = Transform( 1, 0, 0, 0, 1, 0, 0, 0, 1, 0, -0.248703, 0.0842378 )
shape = SubResource( 3 )
disabled = true

[node name="Sound" type="AudioStreamPlayer3D" parent="." index="3"]
stream = ExtResource( 3 )
